{
  "users": [
    {
      "email": "admin@mail.com",
      "password": "eyJhbGciOiJIUzI1NiIsInR5cCI6IkpXVCJ9.eyJ1c2VyX2lkIjoiNWMwZTNhZjFjMzNkYmQyYTA0NzUzZDUwIiwiaWF0IjoxNTQ0NDQyNjgyfQ.fUxNH-p-9TC9-fw8RhMPN6HJZA4u0YclwODI2JkOmJk"
    }
  ]
}
