{
  "compilerOptions": {
    "target": "es6",
    "module": "commonjs",
    "baseUrl": "./",
    "rootDir": "./",
    "paths": {
      "*": ["*", "src/*"],
      "src/*": ["./src/*"]
    }
  },
  "allowJs": true,
  "moduleResolution": "node",
  "exclude": []
}
